<?xml version="1.0" encoding="UTF-8"?>
<svg width="94px" height="94px" viewBox="0 0 94 94" version="1.1" xmlns="http://www.w3.org/2000/svg" xmlns:xlink="http://www.w3.org/1999/xlink">
    <!-- Generator: Sketch 43 (38999) - http://www.bohemiancoding.com/sketch -->
    <title>person-user-profile-male-man-avatar-account-icon</title>
    <desc>Created with Sketch.</desc>
    <defs></defs>
    <g id="Page-1" stroke="none" stroke-width="1" fill="none" fill-rule="evenodd">
        <g id="person-user-profile-male-man-avatar-account-icon" fill-rule="nonzero" fill="#A2A2A2">
            <path d="M47,93.5 C21.359,93.5 0.5,72.64 0.5,47 C0.5,21.36 21.359,0.5 47,0.5 C72.641,0.5 93.5,21.36 93.5,47 C93.5,72.64 72.641,93.5 47,93.5 Z M47,3.5 C23.014,3.5 3.5,23.014 3.5,47 C3.5,70.986 23.014,90.5 47,90.5 C70.986,90.5 90.5,70.986 90.5,47 C90.5,23.014 70.986,3.5 47,3.5 Z" id="Shape"></path>
            <path d="M59.893,35.187 C59.893,41.959 54.12,54.527 47,54.527 C39.88,54.527 34.107,41.959 34.107,35.187 C34.107,28.415 39.879,22.926 47,22.926 C54.121,22.926 59.893,28.415 59.893,35.187 Z" id="Shape"></path>
            <path d="M57.864,53.629 C54.971,57.122 51.292,59.583 47,59.583 C42.708,59.583 39.029,57.121 36.136,53.629 C29.199,55.548 24.5,59.35 24.5,64.26 C24.5,66.662 26.101,67.673 30.597,67.673 L47,67.673 L63.403,67.673 C67.899,67.673 69.5,66.661 69.5,64.26 C69.5,59.35 64.801,55.548 57.864,53.629 Z" id="Shape"></path>
        </g>
    </g>
</svg>