<svg width="11px" height="19px" viewBox="0 0 11 19" version="1.1" xmlns="http://www.w3.org/2000/svg" xmlns:xlink="http://www.w3.org/1999/xlink">
    <g stroke="none" stroke-width="1" fill="none" fill-rule="evenodd" fill-opacity="0.251868207">
        <g transform="translate(-227.000000, -166.000000)" stroke="#FFFFFF" stroke-width="0.5" fill="#2E2E2E">
            <g transform="translate(-1.000000, 0.000000)">
                <path d="M229.823903,167.141615 C229.634664,166.952795 229.331168,166.952795 229.141929,167.141615 C228.95269,167.330434 228.95269,167.633258 229.141929,167.822078 L236.836447,175.499555 L229.141929,183.177031 C228.95269,183.365851 228.95269,183.668675 229.141929,183.857495 C229.234763,183.950123 229.359732,184 229.481131,184 C229.602529,184 229.727498,183.953686 229.820332,183.857495 L237.857621,175.838005 C238.04686,175.652748 238.04686,175.346361 237.861192,175.161104 L229.823903,167.141615 Z"></path>
            </g>
        </g>
    </g>
</svg>
