<svg width="36px" height="36px" viewBox="0 0 36 36" version="1.1" xmlns="http://www.w3.org/2000/svg" xmlns:xlink="http://www.w3.org/1999/xlink">
    <g stroke="none" stroke-width="1" fill="none" fill-rule="evenodd">
        <g transform="translate(-8.000000, -6.000000)">
            <g transform="translate(8.799999, 6.400000)">
                <circle fill="#FFFFFF" cx="17.599999" cy="17.599999" r="17.599999"></circle>
                <polygon fill="#179AEE" fill-rule="nonzero" transform="translate(17.726485, 16.881282) scale(-1, 1) rotate(45.000000) translate(-17.726485, -16.881282) " points="23.623528 11.7933811 22.7476108 10.9058431 13.0682949 20.7138294 13.0682949 12.640759 11.8294411 12.640759 11.8294411 22.8567208 21.9115795 22.8567208 21.9115795 21.6013674 13.9442121 21.6013674"></polygon>
            </g>
        </g>
    </g>
</svg>
