<svg width="25px" height="25px" viewBox="0 0 25 25" version="1.1" xmlns="http://www.w3.org/2000/svg" xmlns:xlink="http://www.w3.org/1999/xlink">
    <g stroke="none" stroke-width="1" fill="none" fill-rule="evenodd">
        <g transform="translate(-13.000000, -12.000000)">
            <g transform="translate(13.000000, 12.000000)">
                <g>
                    <g>
                        <circle fill="#FFFFFF" cx="12.5" cy="12.5" r="12.5"></circle>
                        <polygon fill="#179AEE" transform="translate(12.362069, 13.224138) scale(-1, -1) translate(-12.362069, -13.224138) " points="12.362069 9.34482759 16.2413793 17.1034483 8.48275862 17.1034483"></polygon>
                    </g>
                </g>
            </g>
        </g>
    </g>
</svg>
